

{
	"sProcessing":   "기다림...",
	"sLengthMenu":   "_MENU_ 항목 표시",
	"sZeroRecords":  "항목이 없습니다.",
	"sInfo":         "_TOTAL_ 개의 게시물 중 _START_ ~ _END_ 의 게시물",
	"sInfoEmpty":    "0 개 레코드 중 0 에서 0 개 레코드",
	"sInfoFiltered": "( _MAX_ 레코드에서 필터링 됨)",
	"sInfoPostFix":  "",
	"sSearch":       "검색:",
	"sUrl":          "",
	"oPaginate": {
		"sFirst": "먼저",
		"sPrevious": "이전",
		"sNext": "다음",
		"sLast": "마지막"
	},
	"oAria": {
		"sSortAscending":  ": 열 오름차순으로 정렬하려면 활성화",
		"sSortDescending": ": 내림차순으로 정렬하려면 활성화"
	}
}
